{

	"battle_windows_msg_color": "gold",
	"battle_windows_msg_format": "SPG {spgShortName} Shooting now , reloading for{spgReloadTime} sec",

	"spg_panel_format": "<font face='Arial' size='{cfgSize}' color='{cfgColor}'>{spgShortName} - {spgReloadTime} sec</font>",


	"sound_spg_rld_shot": "/GUI/notifications_FX/gun_intuition",
	"sound_spg_rld_finish": "/GUI/notifications_FX/gun_intuition"
}